…
Traffic peaks around midnight–early morning correspond to lifted
restrictions, as reflected by our data.

Conversely, major troughs align with restricted intervals, indicating
compliance or enforcement effectiveness.

### Toll Plaza

-   % of total entries by plaza (for the whole month)
-   % of unique entries by plaza (for the whole month)
-   1.  No. of repeat trips per plaza

<!-- -->

    ## # A tibble: 114 × 3
    ##    Plaza                     n  perc
    ##    <chr>                 <int> <dbl>
    ##  1 Aaya Nagar             3272   0.8
    ##  2 Ashok Nagar-1           433   0.1
    ##  3 Ashok Nagar-2             1   0  
    ##  4 Auchandi 1             9065   2.3
    ##  5 Auchandi 2              101   0  
    ##  6 Badarpur              42890  10.7
    ##  7 Badshahpura galipur       8   0  
    ##  8 Badshahpura galipur-2     1   0  
    ##  9 Bahghera Bypass         141   0  
    ## 10 Bajghera              21545   5.4
    ## # ℹ 104 more rows
…
